pipeline_cpu/ALU_wave.vcd
$date
	Fri May 06 18:09:42 2022
$end
$version
	Icarus Verilog
$end
$timescale
	1ps
$end
$scope module ALU_sim $end
$var wire 1 ! ALU_ZERO $end
$var wire 1 " ALU_OverFlow $end
$var wire 32 # ALU_DC [31:0] $end
$var reg 4 $ ALUCLT [3:0] $end
$var reg 32 % ALU_DA [31:0] $end
$var reg 32 & ALU_DB [31:0] $end
$scope module u_ALU $end
$var wire 4 ' ALUCLT [3:0] $end
$var wire 32 ( ALU_DA [31:0] $end
$var wire 32 ) ALU_DB [31:0] $end
$var wire 1 " ALU_OverFlow $end
$var wire 1 * SUBctr $end
$var wire 32 + shift_result [31:0] $end
$var wire 1 , result_sign $end
$var wire 1 - overflow $end
$var wire 2 . Shiftctr [1:0] $end
$var wire 32 / SLT_result [31:0] $end
$var wire 1 0 SIGctr $end
$var wire 2 1 Op [1:0] $end
$var wire 2 2 Logicctr [1:0] $end
$var wire 1 ! ALU_ZERO $end
$var wire 5 3 ALU_SHIFT [4:0] $end
$var wire 32 4 ADD_result [31:0] $end
$var wire 1 5 ADD_carry $end
$var reg 32 6 ALU_DC [31:0] $end
$var reg 32 7 logic_result [31:0] $end
$scope module u_add_suber $end
$var wire 32 8 Y [31:0] $end
$var wire 32 9 data_A [31:0] $end
$var wire 32 : data_B [31:0] $end
$var wire 1 * sub_flag $end
$var wire 1 ! zero $end
$var wire 1 , result_sign $end
$var wire 32 ; result [31:0] $end
$var wire 1 - overflow $end
$var wire 1 5 co $end
$scope module u_adder $end
$var wire 1 * ci $end
$var wire 32 < data_A [31:0] $end
$var wire 32 = data_B [31:0] $end
$var wire 1 - overflow $end
$var wire 1 ! zero $end
$var wire 1 , result_sign $end
$var wire 32 > result [31:0] $end
$var wire 1 5 co $end
$upscope $end
$upscope $end
$scope module u_shifter $end
$var wire 32 ? A_right [31:0] $end
$var wire 32 @ Indata [31:0] $end
$var wire 5 A SHIFT_NUM [4:0] $end
$var wire 2 B Shiftctr [1:0] $end
$var wire 32 C shift_result [31:0] $end
$var wire 32 D right [31:0] $end
$var wire 32 E left [31:0] $end
$upscope $end
$upscope $end
$upscope $end
$enddefinitions $end
#0
$dumpvars
b11100000000000010000000000000000 E
b11101110 D
b11100000000000010000000000000000 C
b0 B
b10000 A
b111011101110000000000001 @
b11111111111111110000000011101110 ?
b111111111111111100010001 >
b100010001111100010000 =
b111011101110000000000001 <
b111111111111111100010001 ;
b100010001111100010000 :
b111011101110000000000001 9
b100010001111100010000 8
b111111111111111100010001 7
b111111111111111100010001 6
05
b111111111111111100010001 4
b10000 3
b0 2
b0 1
00
b0 /
b0 .
0-
0,
b11100000000000010000000000000000 +
0*
b100010001111100010000 )
b111011101110000000000001 (
b0 '
b100010001111100010000 &
b111011101110000000000001 %
b0 $
b111111111111111100010001 #
0"
0!
$end
#10000
1!
15
1*
b1110111011100000000000010 +
b1110111011100000000000010 C
b0 #
b0 6
b10000000011101110111000000000000 ?
b0 4
b0 ;
b0 >
b10 .
b10 B
b1110111011100000000000010 E
b11101110111000000000000 D
b1 3
b1 A
b11111111000100010001111111111110 8
b11111111000100010001111111111110 =
b0 7
b1000 $
b1000 '
b111011101110000000000001 &
b111011101110000000000001 )
b111011101110000000000001 :
#20000
b1 /
05
0*
b11 1
b11100000000000010000000000000000 +
b11100000000000010000000000000000 C
0!
b11100000000000010000000000000000 #
b11100000000000010000000000000000 6
b11111111111111110000000011101110 ?
b111011101110000000010001 4
b111011101110000000010001 ;
b111011101110000000010001 >
b1 2
b0 .
b0 B
10
b11100000000000010000000000000000 E
b11101110 D
b10000 3
b10000 A
b10000 8
b10000 =
bx 7
b1 $
b1 '
b10000 &
b10000 )
b10000 :
#30000
1"
1-
b1 #
b1 6
b10 1
b1110000000000001000000000000000 +
b1110000000000001000000000000000 C
1*
b11111111111111111111111111101111 7
b1 /
15
0,
b10 2
00
b1110000000000001000000000000000 E
b1111 3
b1111 A
b10110000110011101110000000010000 8
b10110000110011101110000000010000 =
b1100001101111011100000000010010 4
b1100001101111011100000000010010 ;
b1100001101111011100000000010010 >
b11111111111111110110000111011101 ?
b10 $
b10 '
b1001111001100010001111111101111 &
b1001111001100010001111111101111 )
b1001111001100010001111111101111 :
b10110000111011101 D
b10110000111011101110000000000001 %
b10110000111011101110000000000001 (
b10110000111011101110000000000001 9
b10110000111011101110000000000001 <
b10110000111011101110000000000001 @
#40000
b0 #
b0 6
b0 /
1"
1-
1,
05
0!
b10011110011000100011111111011110 +
b10011110011000100011111111011110 C
b1 3
b1 A
b1001111000100010001111111111110 8
b1001111000100010001111111111110 =
b10011110010000100011111111101110 4
b10011110010000100011111111101110 ;
b10011110010000100011111111101110 >
b10100111100110001000111111110111 ?
b10110000111011101110000000000001 &
b10110000111011101110000000000001 )
b10110000111011101110000000000001 :
b10011110011000100011111111011110 E
b100111100110001000111111110111 D
b1001111001100010001111111101111 %
b1001111001100010001111111101111 (
b1001111001100010001111111101111 9
b1001111001100010001111111101111 <
b1001111001100010001111111101111 @
#50000
b0 #
b0 6
0"
0-
b0 /
0,
b1001110010000100011111111101110 4
b1001110010000100011111111101110 ;
b1001110010000100011111111101110 >
15
b11111111000100010001111111111110 8
b11111111000100010001111111111110 =
b1001111111111111111111111101111 7
b111011101110000000000001 &
b111011101110000000000001 )
b111011101110000000000001 :
#60000
b1 #
b1 6
b1 /
0"
0-
05
1,
b1110000000000001000000000000000 +
b1110000000000001000000000000000 C
b1111 3
b1111 A
b110000110011101110000000010000 8
b110000110011101110000000010000 =
b10110001101111011100000000010010 4
b10110001101111011100000000010010 ;
b10110001101111011100000000010010 >
b11111111111111110000000111011101 ?
b11001111111111111111111111101111 7
b11001111001100010001111111101111 &
b11001111001100010001111111101111 )
b11001111001100010001111111101111 :
b1110000000000001000000000000000 E
b10000000111011101 D
b10000000111011101110000000000001 %
b10000000111011101110000000000001 (
b10000000111011101110000000000001 9
b10000000111011101110000000000001 <
b10000000111011101110000000000001 @
#70000
1"
1-
b10011110011000100011111111011110 +
b10011110011000100011111111011110 C
b11 2
10
b1 3
b1 A
b1001111000100010001111111111110 8
b1001111000100010001111111111110 =
b10011110010000100011111111101110 4
b10011110010000100011111111101110 ;
b10011110010000100011111111101110 >
b10100111100110001000111111110111 ?
b1000000000000000000001 7
b11 $
b11 '
b10110000111011101110000000000001 &
b10110000111011101110000000000001 )
b10110000111011101110000000000001 :
b10011110011000100011111111011110 E
b100111100110001000111111110111 D
b1001111001100010001111111101111 %
b1001111001100010001111111101111 (
b1001111001100010001111111101111 9
b1001111001100010001111111101111 <
b1001111001100010001111111101111 @
#80000
1"
1-
b0 #
b0 6
b0 /
0!
0,
b1110000000000001000000000000000 +
b1110000000000001000000000000000 C
b1111 3
b1111 A
b10110000110011101110000000010000 8
b10110000110011101110000000010000 =
b1100001101111011100000000010010 4
b1100001101111011100000000010010 ;
b1100001101111011100000000010010 >
15
b11111111111111110110000111011101 ?
b1001111001100010001111111101111 &
b1001111001100010001111111101111 )
b1001111001100010001111111101111 :
b1110000000000001000000000000000 E
b10110000111011101 D
b10110000111011101110000000000001 %
b10110000111011101110000000000001 (
b10110000111011101110000000000001 9
b10110000111011101110000000000001 <
b10110000111011101110000000000001 @
#90000
0"
0-
b10110000111011101 +
b10110000111011101 C
b1001111001100010001111111101111 8
b1001111001100010001111111101111 =
b111111111111111110000 4
b111111111111111110000 ;
b111111111111111110000 >
b1 1
b11111111110111111111111111101110 #
b11111111110111111111111111101110 6
0*
b11111111110111111111111111101110 7
b0 /
b0 2
b1 .
b1 B
00
b100 $
b100 '
#100000
b11 1
b1 /
b11101110 +
b11101110 C
b11101110 #
b11101110 6
b1 2
10
b11100000000000010000000000000000 E
b10000 3
b10000 A
b10000 8
b10000 =
b111011101110000000010001 4
b111011101110000000010001 ;
b111011101110000000010001 >
05
b11111111111111110000000011101110 ?
bx 7
b101 $
b101 '
b10000 &
b10000 )
b10000 :
b11101110 D
b111011101110000000000001 %
b111011101110000000000001 (
b111011101110000000000001 9
b111011101110000000000001 <
b111011101110000000000001 @
#110000
1,
b1000000011101110 #
b1000000011101110 6
b1000000011101110 +
b1000000011101110 C
b10000000111011101110000000010001 4
b10000000111011101110000000010001 ;
b10000000111011101110000000010001 >
b11111111111111111000000011101110 ?
b1000000011101110 D
b10000000111011101110000000000001 %
b10000000111011101110000000000001 (
b10000000111011101110000000000001 9
b10000000111011101110000000000001 <
b10000000111011101110000000000001 @
#120000
b0 /
15
b11111111111111111111111111101111 8
b11111111111111111111111111101111 =
1*
0,
b11101110 #
b11101110 6
b11101110 +
b11101110 C
b11 .
b11 B
b111011101101111111110001 4
b111011101101111111110001 ;
b111011101101111111110001 >
b11111111111111110000000011101110 ?
b1101 $
b1101 '
b11101110 D
b111011101110000000000001 %
b111011101110000000000001 (
b111011101110000000000001 9
b111011101110000000000001 <
b111011101110000000000001 @
#130000
0"
0-
1,
b11111111111111111000000011101110 #
b11111111111111111000000011101110 6
b11111111111111111000000011101110 +
b11111111111111111000000011101110 C
b10000000111011101101111111110001 4
b10000000111011101101111111110001 ;
b10000000111011101101111111110001 >
b11111111111111111000000011101110 ?
b1000000011101110 D
b10000000111011101110000000000001 %
b10000000111011101110000000000001 (
b10000000111011101110000000000001 9
b10000000111011101110000000000001 <
b10000000111011101110000000000001 @
#140000
1"
1-
b1 1
0,
b11111111111111111111111111101111 7
b1 /
b11111111111111111111111111101111 #
b11111111111111111111111111101111 6
b10110000111011101 +
b10110000111011101 C
b10 2
b1 .
b1 B
00
b1110000000000001000000000000000 E
b1111 3
b1111 A
b10110000110011101110000000010000 8
b10110000110011101110000000010000 =
b1100001101111011100000000010010 4
b1100001101111011100000000010010 ;
b1100001101111011100000000010010 >
b11111111111111110110000111011101 ?
b110 $
b110 '
b1001111001100010001111111101111 &
b1001111001100010001111111101111 )
b1001111001100010001111111101111 :
b10110000111011101 D
b10110000111011101110000000000001 %
b10110000111011101110000000000001 (
b10110000111011101110000000000001 9
b10110000111011101110000000000001 <
b10110000111011101110000000000001 @
#150000
b1000000000000000000001 #
b1000000000000000000001 6
b1000000000000000000001 7
b0 /
b11 2
10
b111 $
b111 '
