pipeline_cpu/uint_diver_wave.vcd
$date
	Sun May 08 17:04:05 2022
$end
$version
	Icarus Verilog
$end
$timescale
	1ps
$end
$scope module tb_uint_diver $end
$var wire 32 ! result [31:0] $end
$var wire 32 " remainder [31:0] $end
$var wire 1 # end_flag $end
$var reg 1 $ clk $end
$var reg 1 % diver_en $end
$var reg 32 & dividend [31:0] $end
$var reg 32 ' divisor [31:0] $end
$var reg 1 ( rst_n $end
$scope module u_uint_diver $end
$var wire 1 $ clk $end
$var wire 1 ) cnt_end $end
$var wire 1 * cnt_start $end
$var wire 1 % diver_en $end
$var wire 32 + dividend [31:0] $end
$var wire 32 , divisor [31:0] $end
$var wire 1 # end_flag $end
$var wire 32 - n_data_B [31:0] $end
$var wire 1 ( rst_n $end
$var wire 64 . temp_A_shift [63:0] $end
$var wire 32 / result [31:0] $end
$var wire 32 0 remainder [31:0] $end
$var wire 32 1 data_A [31:0] $end
$var wire 1 2 co $end
$var wire 32 3 add_result [31:0] $end
$var reg 6 4 cnt [5:0] $end
$var reg 32 5 data_B [31:0] $end
$var reg 64 6 temp_A [63:0] $end
$scope module u_adder $end
$var wire 1 7 ci $end
$var wire 32 8 data_A [31:0] $end
$var wire 32 9 data_B [31:0] $end
$var wire 1 : overflow $end
$var wire 1 ; zero $end
$var wire 1 < result_sign $end
$var wire 32 = result [31:0] $end
$var wire 1 2 co $end
$upscope $end
$upscope $end
$upscope $end
$enddefinitions $end
#0
$dumpvars
bx =
x<
x;
x:
bx 9
bx 8
17
bx 6
bx 5
bx 4
bx 3
x2
bx 1
bx 0
bx /
bx0 .
bx -
b1001 ,
b1100 +
1*
x)
0(
b1001 '
b1100 &
1%
0$
x#
bx "
bx !
$end
#5000
0#
0)
bx00 .
bx0 !
bx0 /
b0 4
bx0 6
1$
#10000
0$
#15000
0:
0;
1<
b11111111111111111111111111110111 3
b11111111111111111111111111110111 =
02
b0 1
b0 8
b11000 .
b0 "
b0 0
b1100 !
b1100 /
b11111111111111111111111111110110 -
b11111111111111111111111111110110 9
b1100 6
b1001 5
1$
#20000
0$
1(
#25000
b1 4
1$
#30000
0$
#35000
b110000 .
b11000 !
b11000 /
b11000 6
b10 4
1$
#40000
0$
#45000
b1100000 .
b110000 !
b110000 /
b11 4
b110000 6
1$
#50000
0$
#55000
b11000000 .
b1100000 !
b1100000 /
b1100000 6
b100 4
1$
#60000
0$
#65000
b110000000 .
b11000000 !
b11000000 /
b101 4
b11000000 6
1$
#70000
0$
#75000
b1100000000 .
b110000000 !
b110000000 /
b110000000 6
b110 4
1$
#80000
0$
#85000
b11000000000 .
b1100000000 !
b1100000000 /
b111 4
b1100000000 6
1$
#90000
0$
#95000
b110000000000 .
b11000000000 !
b11000000000 /
b11000000000 6
b1000 4
1$
#100000
0$
#105000
b1100000000000 .
b110000000000 !
b110000000000 /
b1001 4
b110000000000 6
1$
#110000
0$
#115000
b11000000000000 .
b1100000000000 !
b1100000000000 /
b1100000000000 6
b1010 4
1$
#120000
0$
#125000
b110000000000000 .
b11000000000000 !
b11000000000000 /
b1011 4
b11000000000000 6
1$
#130000
0$
#135000
b1100000000000000 .
b110000000000000 !
b110000000000000 /
b110000000000000 6
b1100 4
1$
#140000
0$
#145000
b11000000000000000 .
b1100000000000000 !
b1100000000000000 /
b1101 4
b1100000000000000 6
1$
#150000
0$
#155000
b110000000000000000 .
b11000000000000000 !
b11000000000000000 /
b11000000000000000 6
b1110 4
1$
#160000
0$
#165000
b1100000000000000000 .
b110000000000000000 !
b110000000000000000 /
b1111 4
b110000000000000000 6
1$
#170000
0$
#175000
b11000000000000000000 .
b1100000000000000000 !
b1100000000000000000 /
b1100000000000000000 6
b10000 4
1$
#180000
0$
#185000
b110000000000000000000 .
b11000000000000000000 !
b11000000000000000000 /
b10001 4
b11000000000000000000 6
1$
#190000
0$
#195000
b1100000000000000000000 .
b110000000000000000000 !
b110000000000000000000 /
b110000000000000000000 6
b10010 4
1$
#200000
0$
#205000
b11000000000000000000000 .
b1100000000000000000000 !
b1100000000000000000000 /
b10011 4
b1100000000000000000000 6
1$
#210000
0$
#215000
b110000000000000000000000 .
b11000000000000000000000 !
b11000000000000000000000 /
b11000000000000000000000 6
b10100 4
1$
#220000
0$
#225000
b1100000000000000000000000 .
b110000000000000000000000 !
b110000000000000000000000 /
b10101 4
b110000000000000000000000 6
1$
#230000
0$
#235000
b11000000000000000000000000 .
b1100000000000000000000000 !
b1100000000000000000000000 /
b1100000000000000000000000 6
b10110 4
1$
#240000
0$
#245000
b110000000000000000000000000 .
b11000000000000000000000000 !
b11000000000000000000000000 /
b10111 4
b11000000000000000000000000 6
1$
#250000
0$
#255000
b1100000000000000000000000000 .
b110000000000000000000000000 !
b110000000000000000000000000 /
b110000000000000000000000000 6
b11000 4
1$
#260000
0$
#265000
b11000000000000000000000000000 .
b1100000000000000000000000000 !
b1100000000000000000000000000 /
b11001 4
b1100000000000000000000000000 6
1$
#270000
0$
#275000
b110000000000000000000000000000 .
b11000000000000000000000000000 !
b11000000000000000000000000000 /
b11000000000000000000000000000 6
b11010 4
1$
#280000
0$
#285000
b1100000000000000000000000000000 .
b110000000000000000000000000000 !
b110000000000000000000000000000 /
b11011 4
b110000000000000000000000000000 6
1$
#290000
0$
#295000
b11000000000000000000000000000000 .
b1100000000000000000000000000000 !
b1100000000000000000000000000000 /
b1100000000000000000000000000000 6
b11100 4
1$
#300000
0$
#305000
b11111111111111111111111111111000 3
b11111111111111111111111111111000 =
b1 1
b1 8
b110000000000000000000000000000000 .
b11000000000000000000000000000000 !
b11000000000000000000000000000000 /
b11101 4
b11000000000000000000000000000000 6
1$
#310000
0$
#315000
b11111111111111111111111111111010 3
b11111111111111111111111111111010 =
b11 1
b11 8
b1100000000000000000000000000000000 .
b1 "
b1 0
b10000000000000000000000000000000 !
b10000000000000000000000000000000 /
b110000000000000000000000000000000 6
b11110 4
1$
#320000
0$
#325000
b11111111111111111111111111111101 3
b11111111111111111111111111111101 =
b110 1
b110 8
b11000000000000000000000000000000000 .
b11 "
b11 0
b0 !
b0 /
b11111 4
b1100000000000000000000000000000000 6
1$
#330000
0$
#335000
0<
b11 3
b11 =
12
b1100 1
b1100 8
b110000000000000000000000000000000000 .
b110 "
b110 0
1#
1)
b11000000000000000000000000000000000 6
b100000 4
1$
#340000
0$
#345000
1<
b11111111111111111111111111111101 3
b11111111111111111111111111111101 =
02
b110 1
b110 8
0#
0)
b11000000000000000000000000000000010 .
b11 "
b11 0
b1 !
b1 /
b0 4
b1100000000000000000000000000000001 6
1$
#350000
0$
0*
0%
#355000
1$
#360000
0$
b11 '
b11 ,
b11111111111111111111111111111111 &
b11111111111111111111111111111111 +
1*
1%
#365000
1<
b1 1
b1 8
b11111111111111111111111111111110 3
b11111111111111111111111111111110 =
02
b111111111111111111111111111111110 .
b0 "
b0 0
b11111111111111111111111111111111 !
b11111111111111111111111111111111 /
b11111111111111111111111111111100 -
b11111111111111111111111111111100 9
b1 4
b11111111111111111111111111111111 6
b11 5
1$
#370000
0$
#375000
1;
0<
b0 3
b0 =
12
b11 1
b11 8
b1111111111111111111111111111111100 .
b1 "
b1 0
b11111111111111111111111111111110 !
b11111111111111111111111111111110 /
b111111111111111111111111111111110 6
b10 4
1$
#380000
0$
#385000
0;
1<
b11111111111111111111111111111110 3
b11111111111111111111111111111110 =
02
b1 1
b1 8
b111111111111111111111111111111010 .
b0 "
b0 0
b11111111111111111111111111111101 !
b11111111111111111111111111111101 /
b11 4
b11111111111111111111111111111101 6
1$
#390000
0$
#395000
1;
0<
b0 3
b0 =
12
b11 1
b11 8
b1111111111111111111111111111110100 .
b1 "
b1 0
b11111111111111111111111111111010 !
b11111111111111111111111111111010 /
b111111111111111111111111111111010 6
b100 4
1$
#400000
0$
#405000
0;
1<
b11111111111111111111111111111110 3
b11111111111111111111111111111110 =
02
b1 1
b1 8
b111111111111111111111111111101010 .
b0 "
b0 0
b11111111111111111111111111110101 !
b11111111111111111111111111110101 /
b101 4
b11111111111111111111111111110101 6
1$
#410000
0$
#415000
1;
0<
b0 3
b0 =
12
b11 1
b11 8
b1111111111111111111111111111010100 .
b1 "
b1 0
b11111111111111111111111111101010 !
b11111111111111111111111111101010 /
b111111111111111111111111111101010 6
b110 4
1$
#420000
0$
#425000
0;
1<
b11111111111111111111111111111110 3
b11111111111111111111111111111110 =
02
b1 1
b1 8
b111111111111111111111111110101010 .
b0 "
b0 0
b11111111111111111111111111010101 !
b11111111111111111111111111010101 /
b111 4
b11111111111111111111111111010101 6
1$
#430000
0$
#435000
1;
0<
b0 3
b0 =
12
b11 1
b11 8
b1111111111111111111111111101010100 .
b1 "
b1 0
b11111111111111111111111110101010 !
b11111111111111111111111110101010 /
b111111111111111111111111110101010 6
b1000 4
1$
#440000
0$
#445000
0;
1<
b11111111111111111111111111111110 3
b11111111111111111111111111111110 =
02
b1 1
b1 8
b111111111111111111111111010101010 .
b0 "
b0 0
b11111111111111111111111101010101 !
b11111111111111111111111101010101 /
b1001 4
b11111111111111111111111101010101 6
1$
#450000
0$
#455000
1;
0<
b0 3
b0 =
12
b11 1
b11 8
b1111111111111111111111110101010100 .
b1 "
b1 0
b11111111111111111111111010101010 !
b11111111111111111111111010101010 /
b111111111111111111111111010101010 6
b1010 4
1$
#460000
0$
#465000
0;
1<
b11111111111111111111111111111110 3
b11111111111111111111111111111110 =
02
b1 1
b1 8
b111111111111111111111101010101010 .
b0 "
b0 0
b11111111111111111111110101010101 !
b11111111111111111111110101010101 /
b1011 4
b11111111111111111111110101010101 6
1$
#470000
0$
#475000
1;
0<
b0 3
b0 =
12
b11 1
b11 8
b1111111111111111111111010101010100 .
b1 "
b1 0
b11111111111111111111101010101010 !
b11111111111111111111101010101010 /
b111111111111111111111101010101010 6
b1100 4
1$
#480000
0$
#485000
0;
1<
b11111111111111111111111111111110 3
b11111111111111111111111111111110 =
02
b1 1
b1 8
b111111111111111111110101010101010 .
b0 "
b0 0
b11111111111111111111010101010101 !
b11111111111111111111010101010101 /
b1101 4
b11111111111111111111010101010101 6
1$
#490000
0$
#495000
1;
0<
b0 3
b0 =
12
b11 1
b11 8
b1111111111111111111101010101010100 .
b1 "
b1 0
b11111111111111111110101010101010 !
b11111111111111111110101010101010 /
b111111111111111111110101010101010 6
b1110 4
1$
#500000
0$
#505000
0;
1<
b11111111111111111111111111111110 3
b11111111111111111111111111111110 =
02
b1 1
b1 8
b111111111111111111010101010101010 .
b0 "
b0 0
b11111111111111111101010101010101 !
b11111111111111111101010101010101 /
b1111 4
b11111111111111111101010101010101 6
1$
#510000
0$
#515000
1;
0<
b0 3
b0 =
12
b11 1
b11 8
b1111111111111111110101010101010100 .
b1 "
b1 0
b11111111111111111010101010101010 !
b11111111111111111010101010101010 /
b111111111111111111010101010101010 6
b10000 4
1$
#520000
0$
#525000
0;
1<
b11111111111111111111111111111110 3
b11111111111111111111111111111110 =
02
b1 1
b1 8
b111111111111111101010101010101010 .
b0 "
b0 0
b11111111111111110101010101010101 !
b11111111111111110101010101010101 /
b10001 4
b11111111111111110101010101010101 6
1$
#530000
0$
#535000
1;
0<
b0 3
b0 =
12
b11 1
b11 8
b1111111111111111010101010101010100 .
b1 "
b1 0
b11111111111111101010101010101010 !
b11111111111111101010101010101010 /
b111111111111111101010101010101010 6
b10010 4
1$
#540000
0$
#545000
0;
1<
b11111111111111111111111111111110 3
b11111111111111111111111111111110 =
02
b1 1
b1 8
b111111111111110101010101010101010 .
b0 "
b0 0
b11111111111111010101010101010101 !
b11111111111111010101010101010101 /
b10011 4
b11111111111111010101010101010101 6
1$
#550000
0$
#555000
1;
0<
b0 3
b0 =
12
b11 1
b11 8
b1111111111111101010101010101010100 .
b1 "
b1 0
b11111111111110101010101010101010 !
b11111111111110101010101010101010 /
b111111111111110101010101010101010 6
b10100 4
1$
#560000
0$
#565000
0;
1<
b11111111111111111111111111111110 3
b11111111111111111111111111111110 =
02
b1 1
b1 8
b111111111111010101010101010101010 .
b0 "
b0 0
b11111111111101010101010101010101 !
b11111111111101010101010101010101 /
b10101 4
b11111111111101010101010101010101 6
1$
#570000
0$
#575000
1;
0<
b0 3
b0 =
12
b11 1
b11 8
b1111111111110101010101010101010100 .
b1 "
b1 0
b11111111111010101010101010101010 !
b11111111111010101010101010101010 /
b111111111111010101010101010101010 6
b10110 4
1$
#580000
0$
#585000
0;
1<
b11111111111111111111111111111110 3
b11111111111111111111111111111110 =
02
b1 1
b1 8
b111111111101010101010101010101010 .
b0 "
b0 0
b11111111110101010101010101010101 !
b11111111110101010101010101010101 /
b10111 4
b11111111110101010101010101010101 6
1$
#590000
0$
#595000
1;
0<
b0 3
b0 =
12
b11 1
b11 8
b1111111111010101010101010101010100 .
b1 "
b1 0
b11111111101010101010101010101010 !
b11111111101010101010101010101010 /
b111111111101010101010101010101010 6
b11000 4
1$
#600000
0$
#605000
0;
1<
b11111111111111111111111111111110 3
b11111111111111111111111111111110 =
02
b1 1
b1 8
b111111110101010101010101010101010 .
b0 "
b0 0
b11111111010101010101010101010101 !
b11111111010101010101010101010101 /
b11001 4
b11111111010101010101010101010101 6
1$
#610000
0$
#615000
1;
0<
b0 3
b0 =
12
b11 1
b11 8
b1111111101010101010101010101010100 .
b1 "
b1 0
b11111110101010101010101010101010 !
b11111110101010101010101010101010 /
b111111110101010101010101010101010 6
b11010 4
1$
#620000
0$
#625000
0;
1<
b11111111111111111111111111111110 3
b11111111111111111111111111111110 =
02
b1 1
b1 8
b111111010101010101010101010101010 .
b0 "
b0 0
b11111101010101010101010101010101 !
b11111101010101010101010101010101 /
b11011 4
b11111101010101010101010101010101 6
1$
#630000
0$
#635000
1;
0<
b0 3
b0 =
12
b11 1
b11 8
b1111110101010101010101010101010100 .
b1 "
b1 0
b11111010101010101010101010101010 !
b11111010101010101010101010101010 /
b111111010101010101010101010101010 6
b11100 4
1$
#640000
0$
#645000
0;
1<
b11111111111111111111111111111110 3
b11111111111111111111111111111110 =
02
b1 1
b1 8
b111101010101010101010101010101010 .
b0 "
b0 0
b11110101010101010101010101010101 !
b11110101010101010101010101010101 /
b11101 4
b11110101010101010101010101010101 6
1$
#650000
0$
#655000
1;
0<
b0 3
b0 =
12
b11 1
b11 8
b1111010101010101010101010101010100 .
b1 "
b1 0
b11101010101010101010101010101010 !
b11101010101010101010101010101010 /
b111101010101010101010101010101010 6
b11110 4
1$
#660000
0$
#665000
0;
1<
b11111111111111111111111111111110 3
b11111111111111111111111111111110 =
02
b1 1
b1 8
b110101010101010101010101010101010 .
b0 "
b0 0
b11010101010101010101010101010101 !
b11010101010101010101010101010101 /
b11111 4
b11010101010101010101010101010101 6
1$
#670000
0$
#675000
1;
0<
b0 3
b0 =
12
b11 1
b11 8
b1101010101010101010101010101010100 .
b1 "
b1 0
b10101010101010101010101010101010 !
b10101010101010101010101010101010 /
1#
1)
b110101010101010101010101010101010 6
b100000 4
1$
#680000
0$
#685000
0;
1<
b11111111111111111111111111111101 3
b11111111111111111111111111111101 =
02
b0 1
b0 8
0#
0)
b10101010101010101010101010101010 .
b0 "
b0 0
b1010101010101010101010101010101 !
b1010101010101010101010101010101 /
b0 4
b1010101010101010101010101010101 6
1$
#690000
0$
0*
0%
