signle_clk_cpu/RISC_V.vcd
$date
	Mon Jul 18 22:36:11 2022
$end
$version
	Icarus Verilog
$end
$timescale
	1ps
$end
$scope module tb_RISC_V $end
$var reg 1 ! clk $end
$var reg 1 " rst_n $end
$scope module u_RISC_V $end
$var wire 1 ! clk $end
$var wire 1 " rst_n $end
$var wire 8 # instr_addr [7:0] $end
$var wire 32 $ instr [31:0] $end
$var wire 1 % data_RAM_W_en $end
$var wire 32 & dataRAM_data [31:0] $end
$var wire 8 ' dataRAM_adder [7:0] $end
$var wire 32 ( dataRAM_Wr_data [31:0] $end
$scope module u_dataRAM $end
$var wire 1 ! clk $end
$var wire 32 ) dout [31:0] $end
$var wire 32 * din [31:0] $end
$var wire 8 + addr [7:0] $end
$var wire 1 % W_en $end
$upscope $end
$scope module u_datapath $end
$var wire 1 , W_en $end
$var wire 32 - Wr_data [31:0] $end
$var wire 1 ! clk $end
$var wire 32 . dataRAM_data [31:0] $end
$var wire 1 " rst_n $end
$var wire 32 / regs_rs2_data [31:0] $end
$var wire 32 0 regs_rs1_data [31:0] $end
$var wire 1 1 registers_W_en $end
$var wire 8 2 instr_addr [7:0] $end
$var wire 32 3 instr [31:0] $end
$var wire 32 4 imme [31:0] $end
$var wire 1 5 func7 $end
$var wire 3 6 func3 [2:0] $end
$var wire 1 % data_RAM_W_en $end
$var wire 8 7 dataRAM_adder [7:0] $end
$var wire 32 8 dataRAM_Wr_data [31:0] $end
$var wire 32 9 WB_data [31:0] $end
$var wire 1 : S_type $end
$var wire 32 ; Read_data [31:0] $end
$var wire 1 < R_type $end
$var wire 32 = PC_now [31:0] $end
$var wire 32 > PC_add_imme [31:0] $end
$var wire 32 ? PC_add_4 [31:0] $end
$var wire 1 @ L_type $end
$var wire 1 A LUI_instr $end
$var wire 1 B JAL_instr $end
$var wire 1 C JALR_instr $end
$var wire 1 D I_type $end
$var wire 1 E B_type_jump_flag $end
$var wire 1 F B_type $end
$var wire 1 G AUIPC_instr $end
$var wire 32 H ALU_res [31:0] $end
$var wire 1 I ALU_ZERO $end
$scope module u_Branch $end
$var wire 1 J B_type_flag $end
$var wire 1 E B_type_jump_flag $end
$var wire 1 ! clk $end
$var wire 1 " rst_n $end
$var wire 3 K func3 [2:0] $end
$var wire 1 F B_type $end
$var wire 32 L ALU_res [31:0] $end
$var wire 1 I ALU_ZERO $end
$upscope $end
$scope module u_EXU $end
$var wire 32 M ALU_DA [31:0] $end
$var wire 32 N imme [31:0] $end
$var wire 1 5 func7 $end
$var wire 3 O func3 [2:0] $end
$var wire 1 : S_type $end
$var wire 32 P Rd_data2 [31:0] $end
$var wire 32 Q Rd_data1 [31:0] $end
$var wire 1 < R_type $end
$var wire 1 @ L_type $end
$var wire 1 C JALR_instr $end
$var wire 1 D I_type $end
$var wire 1 F B_type $end
$var wire 4 R ALUop [3:0] $end
$var wire 1 S ALUdata_flag $end
$var wire 32 T ALU_res [31:0] $end
$var wire 1 I ALU_ZERO $end
$var wire 32 U ALU_DB [31:0] $end
$scope module u_ALU $end
$var wire 32 V ALU_DA [31:0] $end
$var wire 32 W ALU_DB [31:0] $end
$var wire 1 X ALU_OverFlow $end
$var wire 1 Y SUBctr $end
$var wire 32 Z shift_result [31:0] $end
$var wire 1 [ result_sign $end
$var wire 1 \ overflow $end
$var wire 2 ] Shiftctr [1:0] $end
$var wire 32 ^ SLT_result [31:0] $end
$var wire 1 _ SIGctr $end
$var wire 2 ` Op [1:0] $end
$var wire 2 a Logicctr [1:0] $end
$var wire 4 b ALUop [3:0] $end
$var wire 1 I ALU_ZERO $end
$var wire 5 c ALU_SHIFT [4:0] $end
$var wire 32 d ADD_result [31:0] $end
$var wire 1 e ADD_carry $end
$var reg 32 f ALU_res [31:0] $end
$var reg 32 g logic_result [31:0] $end
$scope module u_add_suber $end
$var wire 32 h Y [31:0] $end
$var wire 32 i data_A [31:0] $end
$var wire 32 j data_B [31:0] $end
$var wire 1 Y sub_flag $end
$var wire 1 I zero $end
$var wire 1 [ result_sign $end
$var wire 32 k result [31:0] $end
$var wire 1 \ overflow $end
$var wire 1 e co $end
$scope module u_adder $end
$var wire 1 Y ci $end
$var wire 32 l data_A [31:0] $end
$var wire 32 m data_B [31:0] $end
$var wire 1 \ overflow $end
$var wire 1 I zero $end
$var wire 1 [ result_sign $end
$var wire 32 n result [31:0] $end
$var wire 1 e co $end
$upscope $end
$upscope $end
$scope module u_shifter $end
$var wire 32 o A_right [31:0] $end
$var wire 32 p Indata [31:0] $end
$var wire 5 q SHIFT_NUM [4:0] $end
$var wire 2 r Shiftctr [1:0] $end
$var wire 32 s shift_result [31:0] $end
$var wire 32 t right [31:0] $end
$var wire 32 u left [31:0] $end
$upscope $end
$upscope $end
$scope module u_ALU_control $end
$var wire 1 S ALUdata_flag $end
$var wire 4 v L_S_ALUop [3:0] $end
$var wire 1 5 func7 $end
$var wire 3 w func3 [2:0] $end
$var wire 1 : S_type $end
$var wire 1 < R_type $end
$var wire 4 x R_ALUop [3:0] $end
$var wire 1 @ L_type $end
$var wire 1 C JALR_instr $end
$var wire 4 y JALR_ALUop [3:0] $end
$var wire 1 D I_type $end
$var wire 4 z I_ALUop [3:0] $end
$var wire 1 F B_type $end
$var wire 4 { B_ALUop [3:0] $end
$var wire 4 | ALUop [3:0] $end
$upscope $end
$upscope $end
$scope module u_IDU $end
$var wire 1 , W_en $end
$var wire 32 } Wr_data [31:0] $end
$var wire 1 ! clk $end
$var wire 1 " rst_n $end
$var wire 32 ~ regs_rs2_data [31:0] $end
$var wire 32 !" regs_rs1_data [31:0] $end
$var wire 32 "" instr [31:0] $end
$var wire 32 #" imme [31:0] $end
$var wire 1 5 func7 $end
$var wire 3 $" func3 [2:0] $end
$var wire 1 : S_type $end
$var wire 5 %" Rs2 [4:0] $end
$var wire 5 &" Rs1 [4:0] $end
$var wire 5 '" Rd [4:0] $end
$var wire 1 < R_type $end
$var wire 32 (" PC_now [31:0] $end
$var wire 32 )" PC_add_imme [31:0] $end
$var wire 1 @ L_type $end
$var wire 1 A LUI_instr $end
$var wire 1 B JAL_instr $end
$var wire 1 C JALR_instr $end
$var wire 1 D I_type $end
$var wire 1 F B_type $end
$var wire 1 G AUIPC_instr $end
$scope module u_decode $end
$var wire 32 *" instr [31:0] $end
$var wire 32 +" imme [31:0] $end
$var wire 1 5 func7 $end
$var wire 3 ," func3 [2:0] $end
$var wire 32 -" U_imme [31:0] $end
$var wire 1 : S_type $end
$var wire 32 ." S_imme [31:0] $end
$var wire 5 /" Rs2 [4:0] $end
$var wire 5 0" Rs1 [4:0] $end
$var wire 5 1" Rd [4:0] $end
$var wire 1 < R_type $end
$var wire 1 @ L_type $end
$var wire 1 A LUI_instr $end
$var wire 32 2" J_imme [31:0] $end
$var wire 1 B JAL_instr $end
$var wire 1 C JALR_instr $end
$var wire 1 D I_type $end
$var wire 32 3" I_imme [31:0] $end
$var wire 1 F B_type $end
$var wire 32 4" B_imme [31:0] $end
$var wire 1 G AUIPC_instr $end
$upscope $end
$scope module u_registers $end
$var wire 5 5" Rd [4:0] $end
$var wire 5 6" Rs1 [4:0] $end
$var wire 5 7" Rs2 [4:0] $end
$var wire 1 , W_en $end
$var wire 32 8" Wr_data [31:0] $end
$var wire 1 ! clk $end
$var wire 32 9" Rd_data2 [31:0] $end
$var wire 32 :" Rd_data1 [31:0] $end
$upscope $end
$upscope $end
$scope module u_IFU $end
$var wire 32 ;" ALU_res [31:0] $end
$var wire 1 E B_type_jump_flag $end
$var wire 1 C JALR_instr $end
$var wire 1 B JAL_instr $end
$var wire 32 <" PC_add_imme [31:0] $end
$var wire 1 ! clk $end
$var wire 1 " rst_n $end
$var wire 8 =" instr_addr [7:0] $end
$var wire 32 >" PC_now [31:0] $end
$var wire 32 ?" PC_next [31:0] $end
$var wire 32 @" PC_add_4 [31:0] $end
$scope module u_PC_next_mux $end
$var wire 32 A" ALU_res [31:0] $end
$var wire 1 E B_type_jump_flag $end
$var wire 1 C JALR_instr $end
$var wire 1 B JAL_instr $end
$var wire 32 B" PC_add_4 [31:0] $end
$var wire 32 C" PC_add_imme [31:0] $end
$var wire 32 D" PC_next [31:0] $end
$upscope $end
$scope module u_PC_reg $end
$var wire 1 ! clk $end
$var wire 32 E" pc_new [31:0] $end
$var wire 1 " rst_n $end
$var reg 32 F" pc_out [31:0] $end
$upscope $end
$upscope $end
$scope module u_MEM $end
$var wire 1 @ L_type $end
$var wire 1 : S_type $end
$var wire 32 G" addr [31:0] $end
$var wire 32 H" dataRAM_Read_data [31:0] $end
$var wire 1 % data_RAM_W_en $end
$var wire 32 I" data_in [31:0] $end
$var wire 3 J" data_type [2:0] $end
$var wire 8 K" ram_adder [7:0] $end
$var wire 32 L" dataRAM_Wr_data [31:0] $end
$var wire 32 M" Read_data [31:0] $end
$scope module u_dataRAM_control $end
$var wire 2 N" bytes [1:0] $end
$var wire 32 O" dataRAM_Read_data [31:0] $end
$var wire 32 P" data_in [31:0] $end
$var wire 3 Q" data_type [2:0] $end
$var wire 32 R" dataRAM_Wr_data_H [31:0] $end
$var wire 32 S" dataRAM_Wr_data [31:0] $end
$var wire 32 T" Read_data [31:0] $end
$var wire 32 U" Rd_data_H_ext [31:0] $end
$var wire 16 V" Rd_data_H [15:0] $end
$var wire 32 W" Rd_data_B_ext [31:0] $end
$var reg 8 X" Rd_data_B [7:0] $end
$var reg 32 Y" dataRAM_Wr_data_B [31:0] $end
$upscope $end
$upscope $end
$scope module u_WB $end
$var wire 32 Z" ALU_res [31:0] $end
$var wire 1 G AUIPC_instr $end
$var wire 1 F B_type $end
$var wire 1 D I_type $end
$var wire 1 C JALR_instr $end
$var wire 1 B JAL_instr $end
$var wire 1 A LUI_instr $end
$var wire 1 @ L_type $end
$var wire 32 [" PC_add_4 [31:0] $end
$var wire 32 \" PC_add_imme [31:0] $end
$var wire 1 < R_type $end
$var wire 1 : S_type $end
$var wire 32 ]" data_men_dout [31:0] $end
$var wire 32 ^" imme [31:0] $end
$var wire 1 1 registers_W_en $end
$var wire 32 _" WB_data [31:0] $end
$upscope $end
$upscope $end
$scope module u_instr_RAM $end
$var wire 8 `" addr [7:0] $end
$var wire 32 a" instr [31:0] $end
$upscope $end
$upscope $end
$upscope $end
$enddefinitions $end
#0
$dumpvars
bx a"
bx `"
bx _"
bx ^"
bx ]"
bx \"
bx ["
b0 Z"
bx Y"
bx X"
bx W"
bx V"
bx U"
bx T"
bx S"
bx R"
bx Q"
bx P"
bx O"
b0 N"
bx M"
bx L"
b0 K"
bx J"
bx I"
bx H"
b0 G"
bx F"
bx E"
bx D"
bx C"
bx B"
b0 A"
bx @"
bx ?"
bx >"
bx ="
bx <"
b0 ;"
bx :"
bx 9"
bx 8"
bx 7"
bx 6"
bx 5"
bx0 4"
bx 3"
bx0 2"
bx 1"
bx 0"
bx /"
bx ."
bx000000000000 -"
bx ,"
bx +"
bx *"
bx )"
bx ("
bx '"
bx &"
bx %"
bx $"
bx #"
bx ""
bx !"
bx ~
bx }
bx |
b1x {
bx z
b0xxx y
bx x
bx w
b0 v
bx u
bx t
bx s
bx r
bx q
bx p
bx o
bx n
bx m
bx l
bx k
bx j
bx i
bx h
bx g
b0 f
xe
bx d
bx c
bx b
bx a
bx `
x_
b0x ^
bx ]
x\
x[
bx Z
xY
xX
bx W
bx V
bx U
b0 T
xS
bx R
bx Q
bx P
bx O
bx N
bx M
b0 L
bx K
xJ
xI
b0 H
xG
xF
xE
xD
xC
xB
xA
x@
bx ?
bx >
bx =
x<
bx ;
x:
bx 9
bx 8
b0 7
bx 6
x5
bx 4
bx 3
bx 2
x1
bx 0
bx /
bx .
bx -
x,
b0 +
bx *
bx )
bx (
b0 '
bx &
x%
bx $
bx #
0"
0!
$end
#5000
1J
0X
0\
b11111111111111111111000000000000 H
b11111111111111111111000000000000 L
b11111111111111111111000000000000 T
b11111111111111111111000000000000 f
b11111111111111111111000000000000 ;"
b11111111111111111111000000000000 A"
b11111111111111111111000000000000 G"
b11111111111111111111000000000000 Z"
b1 ^
0I
1[
b11111111111111111111000000000000 d
b11111111111111111111000000000000 k
b11111111111111111111000000000000 n
0e
b0 `
b11111111111111111110111111111111 h
b11111111111111111110111111111111 m
b0 g
1Y
b0 Z
b0 s
bx0000000000000000 (
bx0000000000000000 *
bx0000000000000000 8
bx0000000000000000 L"
bx0000000000000000 S"
1_
b11 ]
b11 r
b11 a
b1000000000000 -
b1000000000000 }
b1000000000000 8"
b1000000000000 9
b1000000000000 _"
b0 o
b1111 R
b1111 b
b1111 |
b0 u
b0 t
b0 c
b0 q
bx0000000000000000 R"
b1000000000000 U
b1000000000000 W
b1000000000000 j
bx00000000 Y"
b100 ?"
b100 D"
b100 E"
b1000000000000 >
b1000000000000 )"
b1000000000000 <"
b1000000000000 C"
b1000000000000 \"
b1000000000000 4
b1000000000000 N
b1000000000000 #"
b1000000000000 +"
b1000000000000 ^"
b0 /
b0 P
b0 ~
b0 9"
b0 I"
b0 P"
b0 M
b0 V
b0 i
b0 l
b0 p
b0 0
b0 Q
b0 !"
b0 :"
1,
11
b10 {
b0 %"
b0 /"
b0 7"
b0 &"
b0 0"
b0 6"
0E
0S
b1 ."
b100000000000 4"
b1000000000000 2"
b1000000000000 -"
b0 3"
0F
0G
1A
0C
0B
0<
0%
0:
0@
0D
b1 '"
b1 1"
b1 5"
05
b1 y
b1 z
b1 x
b1 6
b1 K
b1 O
b1 w
b1 $"
b1 ,"
b1 J"
b1 Q"
b1000010110111 $
b1000010110111 3
b1000010110111 ""
b1000010110111 *"
b1000010110111 a"
b0 #
b0 2
b0 ="
b0 `"
b100 ?
b100 @"
b100 B"
b100 ["
b0 =
b0 ("
b0 >"
b0 F"
1!
#10000
0!
#15000
1!
#20000
0!
1"
#25000
b11111111111111111100000000000000 H
b11111111111111111100000000000000 L
b11111111111111111100000000000000 T
b11111111111111111100000000000000 f
b11111111111111111100000000000000 ;"
b11111111111111111100000000000000 A"
b11111111111111111100000000000000 G"
b11111111111111111100000000000000 Z"
0J
b11111111111111111100000000000000 d
b11111111111111111100000000000000 k
b11111111111111111100000000000000 n
b11111111111111111011111111111111 h
b11111111111111111011111111111111 m
b0xxxxxxxx ;
b0xxxxxxxx M"
b0xxxxxxxx T"
b0xxxxxxxx ]"
b100000000000000 U
b100000000000000 W
b100000000000000 j
b100000000000100 -
b100000000000100 }
b100000000000100 8"
b100000000000100 9
b100000000000100 _"
b100000000000000 4
b100000000000000 N
b100000000000000 #"
b100000000000000 +"
b100000000000000 ^"
b0 (
b0 *
b0 8
b0 L"
b0 S"
b0xxxxxxxx W"
b0xxxxxxxxxxxxxxxx U"
b1000 ?"
b1000 D"
b1000 E"
b100000000000000 2"
b100000000000000 -"
1G
0A
b100 y
b100 z
b100 x
b100 6
b100 K
b100 O
b100 w
b100 $"
b100 ,"
b100 J"
b100 Q"
b100000010010111 $
b100000010010111 3
b100000010010111 ""
b100000010010111 *"
b100000010010111 a"
b1 #
b1 2
b1 ="
b1 `"
b1000 ?
b1000 @"
b1000 B"
b1000 ["
b100000000000100 >
b100000000000100 )"
b100000000000100 <"
b100000000000100 C"
b100000000000100 \"
b100 =
b100 ("
b100 >"
b100 F"
1!
#30000
0!
#35000
0J
b10 '
b10 +
b10 7
b10 K"
b0 N"
b0 ^
b1000000000001000000 Z
b1000000000001000000 s
b100 c
b100 q
b11110000000000000000010000000000 o
b100000000000000 g
0Y
0I
0[
b100000000001000 H
b100000000001000 L
b100000000001000 T
b100000000001000 f
b100000000001000 ;"
b100000000001000 A"
b100000000001000 G"
b100000000001000 Z"
bx0100000000000100 R"
b1000000000001000000 u
b10000000000 t
b100000000000100 M
b100000000000100 V
b100000000000100 i
b100000000000100 l
b100000000000100 p
b100000000000100 0
b100000000000100 Q
b100000000000100 !"
b100000000000100 :"
0_
b0 ]
b0 r
b0 a
b100000000001000 d
b100000000001000 k
b100000000001000 n
0e
b100000000000100 (
b100000000000100 *
b100000000000100 8
b100000000000100 L"
b100000000000100 S"
bx00000100 Y"
b1 &"
b1 0"
b1 6"
b0 R
b0 b
b0 |
b100 h
b100 m
b100000000000100 /
b100000000000100 P
b100000000000100 ~
b100000000000100 9"
b100000000000100 I"
b100000000000100 P"
b100 U
b100 W
b100 j
b1 %"
b1 /"
b1 7"
b0 -
b0 }
b0 8"
b0 9
b0 _"
b100 4
b100 N
b100 #"
b100 +"
b100 ^"
0,
01
bx W"
bx U"
bx ;
bx M"
bx T"
bx ]"
b1100 ?"
b1100 D"
b1100 E"
b100 ."
b100 4"
b1010100000000000 2"
b100001010000000000000 -"
b1 3"
0G
1%
1:
b100 '"
b100 1"
b100 5"
b10 y
b10 z
b10 x
b10 6
b10 K
b10 O
b10 w
b10 $"
b10 ,"
b10 J"
b10 Q"
b100001010001000100011 $
b100001010001000100011 3
b100001010001000100011 ""
b100001010001000100011 *"
b100001010001000100011 a"
b10 #
b10 2
b10 ="
b10 `"
b1100 ?
b1100 @"
b1100 B"
b1100 ["
b1100 >
b1100 )"
b1100 <"
b1100 C"
b1100 \"
b1000 =
b1000 ("
b1000 >"
b1000 F"
1!
#40000
0!
#45000
b0 (
b0 *
b0 8
b0 L"
b0 S"
b0 /
b0 P
b0 ~
b0 9"
b0 I"
b0 P"
1,
11
b0 %"
b0 /"
b0 7"
b100000000000100 -
b100000000000100 }
b100000000000100 8"
b100000000000100 9
b100000000000100 _"
b100000000000100 U"
b10000 ?"
b10000 D"
b10000 E"
b10 ."
b10 4"
b1010000000000100 2"
b10000001010000000000000 -"
b100 3"
0%
0:
1@
b10 '"
b10 1"
b10 5"
b100 W"
b0 R"
b100000000000100 V"
b10000001010000100000011 $
b10000001010000100000011 3
b10000001010000100000011 ""
b10000001010000100000011 *"
b10000001010000100000011 a"
b11 #
b11 2
b11 ="
b11 `"
b100 X"
b100000000000000 Y"
b100000000000100 ;
b100000000000100 M"
b100000000000100 T"
b100000000000100 ]"
b10000 ?
b10000 @"
b10000 B"
b10000 ["
b10000 >
b10000 )"
b10000 <"
b10000 C"
b10000 \"
b1100 =
b1100 ("
b1100 >"
b1100 F"
b100000000000100 &
b100000000000100 )
b100000000000100 .
b100000000000100 H"
b100000000000100 O"
1!
#50000
0!
#55000
b100000000000100 U"
b100 W"
b100000000000100 V"
b100 X"
b100000000000100 R"
b100000000000100 &
b100000000000100 )
b100000000000100 .
b100000000000100 H"
b100000000000100 O"
b10 '
b10 +
b10 7
b10 K"
b100000000000100 Y"
b1000000000001000000 Z
b1000000000001000000 s
b1000000000001000 H
b1000000000001000 L
b1000000000001000 T
b1000000000001000 f
b1000000000001000 ;"
b1000000000001000 A"
b1000000000001000 G"
b1000000000001000 Z"
b100000000000100 /
b100000000000100 P
b100000000000100 ~
b100000000000100 9"
b100000000000100 I"
b100000000000100 P"
b11110000000000000000010000000000 o
b1000000000001000 d
b1000000000001000 k
b1000000000001000 n
b10 %"
b10 /"
b10 7"
b1000000000001000000 u
b10000000000 t
b100 c
b100 q
b100000000000100 h
b100000000000100 m
b0 g
b100000000000100 U
b100000000000100 W
b100000000000100 j
b100000000000100 (
b100000000000100 *
b100000000000100 8
b100000000000100 L"
b100000000000100 S"
b100 ;
b100 M"
b100 T"
b100 ]"
b0 4
b0 N
b0 #"
b0 +"
b0 ^"
1S
b1000000000001000 -
b1000000000001000 }
b1000000000001000 8"
b1000000000001000 9
b1000000000001000 _"
b10100 ?"
b10100 D"
b10100 E"
b11 ."
b100000000010 4"
b1000000000000010 2"
b1000001000000000000000 -"
b10 3"
1<
0@
b11 '"
b11 1"
b11 5"
b0 y
b0 z
b0 x
b0 6
b0 K
b0 O
b0 w
b0 $"
b0 ,"
b0 J"
b0 Q"
b1000001000000110110011 $
b1000001000000110110011 3
b1000001000000110110011 ""
b1000001000000110110011 *"
b1000001000000110110011 a"
b100 #
b100 2
b100 ="
b100 `"
b10100 ?
b10100 @"
b10100 B"
b10100 ["
b10000 >
b10000 )"
b10000 <"
b10000 C"
b10000 \"
b10000 =
b10000 ("
b10000 >"
b10000 F"
1!
#60000
0!
#65000
bx ;
bx M"
bx T"
bx ]"
bx U"
bx W"
bx V"
bx X"
b100000000010100 -
b100000000010100 }
b100000000010100 8"
b100000000010100 9
b100000000010100 _"
bx &
bx )
bx .
bx H"
bx O"
b101 '
b101 +
b101 7
b101 K"
bx00000000 (
bx00000000 *
bx00000000 8
bx00000000 L"
bx00000000 S"
b100000000000100 M
b100000000000100 V
b100000000000100 i
b100000000000100 l
b100000000000100 p
b100000000000100 0
b100000000000100 Q
b100000000000100 !"
b100000000000100 :"
b1000000000001000000000000000000 Z
b1000000000001000000000000000000 s
b100000000010100 H
b100000000010100 L
b100000000010100 T
b100000000010100 f
b100000000010100 ;"
b100000000010100 A"
b100000000010100 G"
b100000000010100 Z"
bx0000000000000000 R"
b11111111111111110000000000000000 o
b100000000010100 d
b100000000010100 k
b100000000010100 n
bx00000000 Y"
b1000000000001000000000000000000 u
b0 t
b10000 c
b10000 q
b10000 h
b10000 m
b100000000010100 g
b10000 4
b10000 N
b10000 #"
b10000 +"
b10000 ^"
b0 /
b0 P
b0 ~
b0 9"
b0 I"
b0 P"
b10000 U
b10000 W
b10000 j
b0 %"
b0 /"
b0 7"
b10 &"
b10 0"
b10 6"
0S
b11000 ?"
b11000 D"
b11000 E"
b10000000000010000 2"
b1000000010000000000000000 -"
b10000 3"
0<
1D
b1000000010000000110010011 $
b1000000010000000110010011 3
b1000000010000000110010011 ""
b1000000010000000110010011 *"
b1000000010000000110010011 a"
b101 #
b101 2
b101 ="
b101 `"
b11000 ?
b11000 @"
b11000 B"
b11000 ["
b100100 >
b100100 )"
b100100 <"
b100100 C"
b100100 \"
b10100 =
b10100 ("
b10100 >"
b10100 F"
1!
#70000
0!
#75000
bx00000000 (
bx00000000 *
bx00000000 8
bx00000000 L"
bx00000000 S"
bx00000000 Y"
1[
b0 N"
b11110000000000000000000000000000 o
b11111111 '
b11111111 +
b11111111 7
b11111111 K"
b0 `
b0 Z
b0 s
b11111111111111111111111111111100 H
b11111111111111111111111111111100 L
b11111111111111111111111111111100 T
b11111111111111111111111111111100 f
b11111111111111111111111111111100 ;"
b11111111111111111111111111111100 A"
b11111111111111111111111111111100 G"
b11111111111111111111111111111100 Z"
b1 ^
1Y
b100 c
b100 q
b11111111111111111111111111111011 h
b11111111111111111111111111111011 m
b11111111111111111111111111111100 d
b11111111111111111111111111111100 k
b11111111111111111111111111111100 n
b0 g
b11100 -
b11100 }
b11100 8"
b11100 9
b11100 _"
1_
b11 ]
b11 r
b11 a
b100 U
b100 W
b100 j
b0 u
b0 M
b0 V
b0 i
b0 l
b0 p
b0 0
b0 Q
b0 !"
b0 :"
b1111 R
b1111 b
b1111 |
b100 4
b100 N
b100 #"
b100 +"
b100 ^"
b0 &"
b0 0"
b0 6"
b11100 ?"
b11100 D"
b11100 E"
b1 ."
b100000000000 4"
b100 2"
b10000000000000000000000 -"
b100 3"
1B
0D
b1 '"
b1 1"
b1 5"
b10000000000000011101111 $
b10000000000000011101111 3
b10000000000000011101111 ""
b10000000000000011101111 *"
b10000000000000011101111 a"
b110 #
b110 2
b110 ="
b110 `"
b11100 ?
b11100 @"
b11100 B"
b11100 ["
b11100 >
b11100 )"
b11100 <"
b11100 C"
b11100 \"
b11000 =
b11000 ("
b11000 >"
b11000 F"
1!
#80000
0!
#85000
bx00000000 (
bx00000000 *
bx00000000 8
bx00000000 L"
bx00000000 S"
bx0000000000000000 R"
bx00000000 Y"
b0 N"
b0 ^
b100 h
b100 m
b1000 '
b1000 +
b1000 7
b1000 K"
0Y
0[
b111000000 Z
b111000000 s
b100000 H
b100000 L
b100000 T
b100000 f
b100000 ;"
b100000 A"
b100000 G"
b100000 Z"
0_
b0 ]
b0 r
b0 a
b100000 d
b100000 k
b100000 n
0e
b11110000000000000000000000000001 o
b11000 g
b0 R
b0 b
b0 |
b111000000 u
b1 t
b11100 M
b11100 V
b11100 i
b11100 l
b11100 p
b11100 0
b11100 Q
b11100 !"
b11100 :"
b1 &"
b1 0"
b1 6"
b100000 -
b100000 }
b100000 8"
b100000 9
b100000 _"
b10 ."
b10 4"
b1000000000000100 2"
b10000001000000000000000 -"
1C
0B
b10 '"
b10 1"
b10 5"
b10000001000000101100111 $
b10000001000000101100111 3
b10000001000000101100111 ""
b10000001000000101100111 *"
b10000001000000101100111 a"
b111 #
b111 2
b111 ="
b111 `"
b100000 ?"
b100000 D"
b100000 E"
b100000 ?
b100000 @"
b100000 B"
b100000 ["
b100000 >
b100000 )"
b100000 <"
b100000 C"
b100000 \"
b11100 =
b11100 ("
b11100 >"
b11100 F"
1!
#90000
0!
#95000
b1 N"
0X
0\
b1 ^
1[
1E
b10 `
b0 '
b0 +
b0 7
b0 K"
1J
bx0000000000100000 R"
1Y
b11100 Z
b11100 s
b1 H
b1 L
b1 T
b1 f
b1 ;"
b1 A"
b1 G"
b1 Z"
bx00100000xxxxxxxx Y"
b10 a
b11100 o
b11111111111111111111111111111100 d
b11111111111111111111111111111100 k
b11111111111111111111111111111100 n
b100000 /
b100000 P
b100000 ~
b100000 9"
b100000 I"
b100000 P"
b10 R
b10 b
b10 |
b11100 u
b11100 t
b0 c
b0 q
b11111111111111111111111111011111 h
b11111111111111111111111111011111 m
b111100 g
bx0000000000100000 (
bx0000000000100000 *
bx0000000000100000 8
bx0000000000100000 L"
bx0000000000100000 S"
b0 -
b0 }
b0 8"
b0 9
b0 _"
0,
01
b10 %"
b10 /"
b10 7"
b100000 U
b100000 W
b100000 j
b0 ?"
b0 D"
b0 E"
b11111111111111111111111111100000 4
b11111111111111111111111111100000 N
b11111111111111111111111111100000 #"
b11111111111111111111111111100000 +"
b11111111111111111111111111100000 ^"
1S
b11111111111111111111111111100001 ."
b11111111111111111111111111100000 4"
b11111111111100001001011111100010 2"
b11111110001000001001000000000000 -"
b11111111111111111111111111100010 3"
1F
0C
b1 '"
b1 1"
b1 5"
15
b1 y
b1 z
b1001 x
b1 6
b1 K
b1 O
b1 w
b1 $"
b1 ,"
b1 J"
b1 Q"
b11111110001000001001000011100011 $
b11111110001000001001000011100011 3
b11111110001000001001000011100011 ""
b11111110001000001001000011100011 *"
b11111110001000001001000011100011 a"
b1000 #
b1000 2
b1000 ="
b1000 `"
b100100 ?
b100100 @"
b100100 B"
b100100 ["
b0 >
b0 )"
b0 <"
b0 C"
b0 \"
b100000 =
b100000 ("
b100000 >"
b100000 F"
1!
#100000
0!
#105000
b0 N"
b11111111111111111111000000000000 H
b11111111111111111111000000000000 L
b11111111111111111111000000000000 T
b11111111111111111111000000000000 f
b11111111111111111111000000000000 ;"
b11111111111111111111000000000000 A"
b11111111111111111111000000000000 G"
b11111111111111111111000000000000 Z"
b0 `
0X
0\
bx0000000000000000 (
bx0000000000000000 *
bx0000000000000000 8
bx0000000000000000 L"
bx0000000000000000 S"
bx0000000000000000 R"
1[
b0 Z
b0 s
1_
b11 ]
b11 r
b11 a
bx00000000 Y"
b11111111111111111111000000000000 d
b11111111111111111111000000000000 k
b11111111111111111111000000000000 n
b0 o
b1111 R
b1111 b
b1111 |
b11111111111111111110111111111111 h
b11111111111111111110111111111111 m
b0 g
b1000000000000 -
b1000000000000 }
b1000000000000 8"
b1000000000000 9
b1000000000000 _"
b1000000000000 4
b1000000000000 N
b1000000000000 #"
b1000000000000 +"
b1000000000000 ^"
b0 /
b0 P
b0 ~
b0 9"
b0 I"
b0 P"
b0 u
b0 t
b0 M
b0 V
b0 i
b0 l
b0 p
b0 0
b0 Q
b0 !"
b0 :"
1,
11
b1000000000000 U
b1000000000000 W
b1000000000000 j
b0 %"
b0 /"
b0 7"
b0 &"
b0 0"
b0 6"
0S
0E
b1 ."
b100000000000 4"
b1000000000000 2"
b1000000000000 -"
b0 3"
0F
1A
b1 x
05
b1000010110111 $
b1000010110111 3
b1000010110111 ""
b1000010110111 *"
b1000010110111 a"
b0 #
b0 2
b0 ="
b0 `"
b100 ?"
b100 D"
b100 E"
b100 ?
b100 @"
b100 B"
b100 ["
b1000000000000 >
b1000000000000 )"
b1000000000000 <"
b1000000000000 C"
b1000000000000 \"
b0 =
b0 ("
b0 >"
b0 F"
1!
#110000
0!
#115000
b11111111111111111100000000000000 H
b11111111111111111100000000000000 L
b11111111111111111100000000000000 T
b11111111111111111100000000000000 f
b11111111111111111100000000000000 ;"
b11111111111111111100000000000000 A"
b11111111111111111100000000000000 G"
b11111111111111111100000000000000 Z"
0J
b11111111111111111100000000000000 d
b11111111111111111100000000000000 k
b11111111111111111100000000000000 n
b11111111111111111011111111111111 h
b11111111111111111011111111111111 m
b0xxxxxxxx ;
b0xxxxxxxx M"
b0xxxxxxxx T"
b0xxxxxxxx ]"
b100000000000000 U
b100000000000000 W
b100000000000000 j
b100000000000100 -
b100000000000100 }
b100000000000100 8"
b100000000000100 9
b100000000000100 _"
b100000000000000 4
b100000000000000 N
b100000000000000 #"
b100000000000000 +"
b100000000000000 ^"
b0 (
b0 *
b0 8
b0 L"
b0 S"
b0xxxxxxxx W"
b0xxxxxxxxxxxxxxxx U"
b1000 ?"
b1000 D"
b1000 E"
b100000000000000 2"
b100000000000000 -"
1G
0A
b100 y
b100 z
b100 x
b100 6
b100 K
b100 O
b100 w
b100 $"
b100 ,"
b100 J"
b100 Q"
b100000010010111 $
b100000010010111 3
b100000010010111 ""
b100000010010111 *"
b100000010010111 a"
b1 #
b1 2
b1 ="
b1 `"
b1000 ?
b1000 @"
b1000 B"
b1000 ["
b100000000000100 >
b100000000000100 )"
b100000000000100 <"
b100000000000100 C"
b100000000000100 \"
b100 =
b100 ("
b100 >"
b100 F"
1!
#120000
0!
